Time: 0
Waiting clients: (1,12,2); (2,22,4); (3,9,2); (4,16,3); 
Queue 0: Closed
Queue 1: Closed

Time: 1
Waiting clients: (1,12,2); (2,22,4); (3,9,2); (4,16,3); 
Queue 0: Closed
Queue 1: Closed

Time: 2
Waiting clients: (1,12,2); (2,22,4); (3,9,2); (4,16,3); 
Queue 0: Closed
Queue 1: Closed

Time: 3
Waiting clients: (1,12,2); (2,22,4); (3,9,2); (4,16,3); 
Queue 0: Closed
Queue 1: Closed

Time: 4
Waiting clients: (1,12,2); (2,22,4); (3,9,2); (4,16,3); 
Queue 0: Closed
Queue 1: Closed

Time: 5
Waiting clients: (1,12,2); (2,22,4); (3,9,2); (4,16,3); 
Queue 0: Closed
Queue 1: Closed

Time: 6
Waiting clients: (1,12,2); (2,22,4); (3,9,2); (4,16,3); 
Queue 0: Closed
Queue 1: Closed

Time: 7
Waiting clients: (1,12,2); (2,22,4); (3,9,2); (4,16,3); 
Queue 0: Closed
Queue 1: Closed

Time: 8
Waiting clients: (1,12,2); (2,22,4); (3,9,2); (4,16,3); 
Queue 0: Closed
Queue 1: Closed

Time: 9
Waiting clients: (1,12,2); (2,22,4); (4,16,3); 
Queue 0: (3,9,2); 
Queue 1: Closed

Time: 10
Waiting clients: (1,12,2); (2,22,4); (4,16,3); 
Queue 0: (3,9,1); 
Queue 1: Closed

Time: 11
Waiting clients: (1,12,2); (2,22,4); (4,16,3); 
Queue 0: Closed
Queue 1: Closed

Time: 12
Waiting clients: (2,22,4); (4,16,3); 
Queue 0: (1,12,2); 
Queue 1: Closed

Time: 13
Waiting clients: (2,22,4); (4,16,3); 
Queue 0: (1,12,1); 
Queue 1: Closed

Time: 14
Waiting clients: (2,22,4); (4,16,3); 
Queue 0: Closed
Queue 1: Closed

Time: 15
Waiting clients: (2,22,4); (4,16,3); 
Queue 0: Closed
Queue 1: Closed

Time: 16
Waiting clients: (2,22,4); 
Queue 0: (4,16,3); 
Queue 1: Closed

Time: 17
Waiting clients: (2,22,4); 
Queue 0: (4,16,2); 
Queue 1: Closed

Time: 18
Waiting clients: (2,22,4); 
Queue 0: (4,16,1); 
Queue 1: Closed

Time: 19
Waiting clients: (2,22,4); 
Queue 0: Closed
Queue 1: Closed

Time: 20
Waiting clients: (2,22,4); 
Queue 0: Closed
Queue 1: Closed

Time: 21
Waiting clients: (2,22,4); 
Queue 0: Closed
Queue 1: Closed

Time: 22
Waiting clients: 
Queue 0: (2,22,4); 
Queue 1: Closed

Time: 23
Waiting clients: 
Queue 0: (2,22,3); 
Queue 1: Closed

Time: 24
Waiting clients: 
Queue 0: (2,22,2); 
Queue 1: Closed

Time: 25
Waiting clients: 
Queue 0: (2,22,1); 
Queue 1: Closed

Time: 26
Waiting clients: 
Queue 0: Closed
Queue 1: Closed

Time: 27
Waiting clients: 
Queue 0: Closed
Queue 1: Closed

Time: 28
Waiting clients: 
Queue 0: Closed
Queue 1: Closed

Time: 29
Waiting clients: 
Queue 0: Closed
Queue 1: Closed

Time: 30
Waiting clients: 
Queue 0: Closed
Queue 1: Closed

Time: 31
Waiting clients: 
Queue 0: Closed
Queue 1: Closed

Time: 32
Waiting clients: 
Queue 0: Closed
Queue 1: Closed

Time: 33
Waiting clients: 
Queue 0: Closed
Queue 1: Closed

Time: 34
Waiting clients: 
Queue 0: Closed
Queue 1: Closed

Time: 35
Waiting clients: 
Queue 0: Closed
Queue 1: Closed

Time: 36
Waiting clients: 
Queue 0: Closed
Queue 1: Closed

Time: 37
Waiting clients: 
Queue 0: Closed
Queue 1: Closed

Time: 38
Waiting clients: 
Queue 0: Closed
Queue 1: Closed

Time: 39
Waiting clients: 
Queue 0: Closed
Queue 1: Closed

Time: 40
Waiting clients: 
Queue 0: Closed
Queue 1: Closed

Time: 41
Waiting clients: 
Queue 0: Closed
Queue 1: Closed

Time: 42
Waiting clients: 
Queue 0: Closed
Queue 1: Closed

Time: 43
Waiting clients: 
Queue 0: Closed
Queue 1: Closed

Time: 44
Waiting clients: 
Queue 0: Closed
Queue 1: Closed

Time: 45
Waiting clients: 
Queue 0: Closed
Queue 1: Closed

Time: 46
Waiting clients: 
Queue 0: Closed
Queue 1: Closed

Time: 47
Waiting clients: 
Queue 0: Closed
Queue 1: Closed

Time: 48
Waiting clients: 
Queue 0: Closed
Queue 1: Closed

Time: 49
Waiting clients: 
Queue 0: Closed
Queue 1: Closed

Time: 50
Waiting clients: 
Queue 0: Closed
Queue 1: Closed

Time: 51
Waiting clients: 
Queue 0: Closed
Queue 1: Closed

Time: 52
Waiting clients: 
Queue 0: Closed
Queue 1: Closed

Time: 53
Waiting clients: 
Queue 0: Closed
Queue 1: Closed

Time: 54
Waiting clients: 
Queue 0: Closed
Queue 1: Closed

Time: 55
Waiting clients: 
Queue 0: Closed
Queue 1: Closed

Time: 56
Waiting clients: 
Queue 0: Closed
Queue 1: Closed

Time: 57
Waiting clients: 
Queue 0: Closed
Queue 1: Closed

Time: 58
Waiting clients: 
Queue 0: Closed
Queue 1: Closed

Time: 59
Waiting clients: 
Queue 0: Closed
Queue 1: Closed

Time: 60
Waiting clients: 
Queue 0: Closed
Queue 1: Closed

Average waiting time: 2.75
